{
    "icons": [ "paxy97", "awesome-fonts" ],
    "defaults": {
        "warning": {
            "fg": "#ccb996",
            "bg": "#3c1900"
        },
        "critical": {
            "fg": "#3c1900",
            "bg": "#ccb996"
        },
        "default-separators": false,
        "separator-block-width": 0
    },
    "cycle": [
        { "fg": "#ecd7ac", "bg": "#443f39" },
        { "fg": "#ecd7ac", "bg": "#443f39" },
        { "fg": "#ecd7ac", "bg": "#443f39" },
        { "fg": "#ecd7ac", "bg": "#443f39" },
        { "fg": "#ecd7ac", "bg": "#443f39" },
        { "fg": "#ecd7ac", "bg": "#48423c" },
        { "fg": "#ecd7ac", "bg": "#4c463e" },
        { "fg": "#ecd7ac", "bg": "#504941" },
        { "fg": "#ecd7ac", "bg": "#504941" },
        { "fg": "#ecd7ac", "bg": "#544d44" },
        { "fg": "#ecd7ac", "bg": "#585047" },
        { "fg": "#ecd7ac", "bg": "#5c5449" },
        { "fg": "#ecd7ac", "bg": "#60574c" },
        { "fg": "#ecd7ac", "bg": "#645b4f" },
        { "fg": "#ecd7ac", "bg": "#685f52" },
        { "fg": "#ecd7ac", "bg": "#6d6254" },
        { "fg": "#ecd7ac", "bg": "#716657" },
        { "fg": "#ecd7ac", "bg": "#756a5a" },
        { "fg": "#ecd7ac", "bg": "#796e5d" },
        { "fg": "#ecd7ac", "bg": "#7d7160" },
        { "fg": "#ecd7ac", "bg": "#827563" },
        { "fg": "#ecd7ac", "bg": "#867966" },
        { "fg": "#1f262c", "bg": "#8a7d69" },
        { "fg": "#1f262c", "bg": "#8e816c" },
        { "fg": "#1f262c", "bg": "#93856f" },
        { "fg": "#1f262c", "bg": "#978871" },
        { "fg": "#1f262c", "bg": "#9b8c74" },
        { "fg": "#1f262c", "bg": "#a09077" },
        { "fg": "#1f262c", "bg": "#a4947a" },
        { "fg": "#1f262c", "bg": "#a9987d" },
        { "fg": "#1f262c", "bg": "#ad9c80" },
        { "fg": "#1f262c", "bg": "#b1a083" },
        { "fg": "#1f262c", "bg": "#b6a587" },
        { "fg": "#1f262c", "bg": "#baa98a" },
        { "fg": "#1f262c", "bg": "#bfad8d" },
        { "fg": "#1f262c", "bg": "#c3b190" },
        { "fg": "#1f262c", "bg": "#c8b593" },
        { "fg": "#1f262c", "bg": "#ccb996" },
        { "fg": "#1f262c", "bg": "#d5c29c" },
        { "fg": "#1f262c", "bg": "#dac69f" }
        ]
}
