{
    "icons": [ "paxy97", "awesome-fonts" ],
    "defaults": {
        "warning": {
            "fg": "#a19894",
            "bg": "#D04737"
        },
        "critical": {
            "fg": "#D04737",
            "bg": "#a19894"
        },
        "default-separators": false,
        "separator-block-width": 0
    },
    "cycle": [
        { "fg": "#D3CFCC", "bg": "#AE3B2033" },
        { "fg": "#D3CFCC", "bg": "#373F1033" },
        { "fg": "#D3CFCC", "bg": "#D3CFCC33" },
        { "fg": "#D3CFCC", "bg": "#9AA2D033" },
        { "fg": "#D3CFCC", "bg": "#D7D6D233" },
        { "fg": "#D3CFCC", "bg": "#CFC3B733" },
        { "fg": "#D3CFCC", "bg": "#CEA99733" },
        { "fg": "#D3CFCC", "bg": "#F7D9BD33" },
        { "fg": "#D3CFCC", "bg": "#2F2F1733" }
  ],
  "dnf": {
        "good": {
            "fg": "#002b36",
            "bg": "#859900"
        }
    },
    "apt": {
        "good": {
            "fg": "#002b36",
            "bg": "#859900"
        }
    },
    "battery": {
        "charged": {
            "fg": "#1d2021",
            "bg": "#b8bb26"
        },
        "AC": {
            "fg": "#1d2021",
            "bg": "#b8bb26"
        }
    },
    "bluetooth": {
        "ON": {
            "fg": "#1d2021",
            "bg": "#b8bb26"
        }
    },
    "git": {
        "modified": { "bg": "#458588" },
        "deleted": { "bg": "#9d0006" },
        "new": { "bg": "#b16286" }
    },
    "pomodoro": {
        "paused": {
            "fg": "#1d2021",
            "bg": "#d79921"
        },
        "work": {
            "fg": "#1d2021",
            "bg": "#b8bb26"
        },
        "break": {
            "fg": "#002b36",
            "bg": "#859900"
        }
    }
}
