{
    "icons": [ "awesome-fonts" ],
    "defaults": {
        "separator-block-width": 0,
        "warning": {
            "fg": "#0e0e0e",
            "bg": "#c6c8d1"
        },
        "critical": {
            "fg": "#e27878",
            "bg": "#c6c8d1"
        }
    },
    "cycle": [
      { "fg": "#F6F6F6", "bg": "#898989" },
      { "fg": "#F6F6F6", "bg": "#7f7f7f" },
      { "fg": "#F6F6F6", "bg": "#767676" },
      { "fg": "#F6F6F6", "bg": "#6c6c6c" },
      { "fg": "#F6F6F6", "bg": "#636363" },
      { "fg": "#F6F6F6", "bg": "#5F5F5F" },
      { "fg": "#F6F6F6", "bg": "#5a5a5a" },
      { "fg": "#F6F6F6", "bg": "#515151" },
      { "fg": "#F6F6F6", "bg": "#484848" },
      { "fg": "#F6F6F6", "bg": "#454545" },
      { "fg": "#F6F6F6", "bg": "#3B3B3B" },
      { "fg": "#F6F6F6", "bg": "#3f3f3f" },
      { "fg": "#F6F6F6", "bg": "#373737" },
      { "fg": "#F6F6F6", "bg": "#383838" },
      { "fg": "#F6F6F6", "bg": "#2e2e2e" },
      { "fg": "#F6F6F6", "bg": "#262626" },
      { "fg": "#F6F6F6", "bg": "#1f1f1f" },
      { "fg": "#F6F6F6", "bg": "#171717" },
      { "fg": "#F6F6F6", "bg": "#0e0e0e" },
      { "fg": "#F6F6F6", "bg": "#0e0e0e" },
      { "fg": "#F6F6F6", "bg": "#171717" },
      { "fg": "#F6F6F6", "bg": "#1f1f1f" },
      { "fg": "#F6F6F6", "bg": "#2e2e2e" },
      { "fg": "#F6F6F6", "bg": "#383838" },
      { "fg": "#F6F6F6", "bg": "#373737" },
      { "fg": "#F6F6F6", "bg": "#3f3f3f" },
      { "fg": "#F6F6F6", "bg": "#3B3B3B" },
      { "fg": "#F6F6F6", "bg": "#454545" },
      { "fg": "#F6F6F6", "bg": "#484848" },
      { "fg": "#F6F6F6", "bg": "#515151" },
      { "fg": "#F6F6F6", "bg": "#5a5a5a" },
      { "fg": "#F6F6F6", "bg": "#5F5F5F" },
      { "fg": "#F6F6F6", "bg": "#636363" },
      { "fg": "#F6F6F6", "bg": "#6c6c6c" },
      { "fg": "#F6F6F6", "bg": "#767676" },
      { "fg": "#F6F6F6", "bg": "#7f7f7f" },
      { "fg": "#F6F6F6", "bg": "#898989" }
    ],
    "dnf": {
        "good": {
            "fg": "#b4be82",
            "bg": "#161821"
        }
    },
    "apt": {
        "good": {
            "fg": "#b4be82",
            "bg": "#161821"
        }
    },
    "pacman": {
        "good": {
            "fg": "#888888",
            "bg": "#0e0e0e"
        }
    },
    "battery": {
        "charged": {
            "fg": "#b4be82",
            "bg": "#161821"
        },
        "charging": {
            "fg": "#89b8c2",
            "bg": "#161821"
        }
    },
    "pomodoro": {
        "paused": {
            "fg": "#e2a478",
            "bg": "#c6c8d1"
        },
        "work": {
            "fg": "#89b8c2",
            "bg": "#161821"
        },
        "break": {
            "fg": "#b4be82",
            "bg": "#161821"
        }
    }

}
