{
    "icons": [ "paxy97", "awesome-fonts" ],
    "defaults": {
        "warning": {
            "fg": "#ECD7AC",
            "bg": "#1f262c"
        },
        "critical": {
            "fg": "#1f262c",
            "bg": "#ECD7AC"
        },
        "default-separators": false,
        "separator-block-width": 0
    },
    "cycle": [
        { "fg": "#FFC642", "bg": "#592000" },
        { "fg": "#E6AD29", "bg": "#400700" },
        { "fg": "#E6AD29", "bg": "#260000" },
        { "fg": "#E6AD29", "bg": "#330000" },
        { "fg": "#E6AD29", "bg": "#400700" },
        { "fg": "#FFC642", "bg": "#4C1300" },
        { "fg": "#FFC642", "bg": "#592000" },
        { "fg": "#FFC642", "bg": "#662D00" },
        { "fg": "#FFE05C", "bg": "#733A00" },
        { "fg": "#FFE05C", "bg": "#804700" },
        { "fg": "#FFE05C", "bg": "#8C5300" },
        { "fg": "#FFFF82", "bg": "#996000" },
        { "fg": "#FFFF82", "bg": "#A66D00" },
        { "fg": "#FFFF82", "bg": "#B37A00" },
        { "fg": "#330000", "bg": "#BF8602" },
        { "fg": "#330000", "bg": "#CC930F" },
        { "fg": "#330000", "bg": "#D9A01C" },
        { "fg": "#030303", "bg": "#E6AD29" },
        { "fg": "#030303", "bg": "#F2B935" },
        { "fg": "#4C1300", "bg": "#FFC642" },
        { "fg": "#4C1300", "bg": "#FFD34F" },
        { "fg": "#4C1300", "bg": "#FFE05C" },
        { "fg": "#662D00", "bg": "#FFEC68" },
        { "fg": "#662D00", "bg": "#FFF975" },
        { "fg": "#662D00", "bg": "#FFFF82" },
        { "fg": "#662D00", "bg": "#FFF975" },
        { "fg": "#662D00", "bg": "#FFEC68" },
        { "fg": "#4C1300", "bg": "#FFE05C" },
        { "fg": "#4C1300", "bg": "#FFD34F" },
        { "fg": "#4C1300", "bg": "#FFC642" },
        { "fg": "#030303", "bg": "#F2B935" },
        { "fg": "#030303", "bg": "#E6AD29" },
        { "fg": "#330000", "bg": "#D9A01C" },
        { "fg": "#330000", "bg": "#CC930F" },
        { "fg": "#260000", "bg": "#BF8602" },
        { "fg": "#260000", "bg": "#B37A00" }
      ],
  "dnf": {
        "good": {
            "fg": "#002b36",
            "bg": "#859900"
        }
    },
    "apt": {
        "good": {
            "fg": "#002b36",
            "bg": "#859900"
        }
    },
    "battery": {
        "charged": {
            "fg": "#1d2021",
            "bg": "#b8bb26"
        },
        "AC": {
            "fg": "#1d2021",
            "bg": "#b8bb26"
        }
    },
    "bluetooth": {
        "ON": {
            "fg": "#1d2021",
            "bg": "#b8bb26"
        }
    },
    "git": {
        "modified": { "bg": "#458588" },
        "deleted": { "bg": "#9d0006" },
        "new": { "bg": "#b16286" }
    },
    "pomodoro": {
        "paused": {
            "fg": "#1d2021",
            "bg": "#d79921"
        },
        "work": {
            "fg": "#1d2021",
            "bg": "#b8bb26"
        },
        "break": {
            "fg": "#002b36",
            "bg": "#859900"
        }
    }
}
