{
    "icons": [ "paxy97", "awesome-fonts" ],
    "defaults": {
        "warning": {
            "fg": "#a19894",
            "bg": "#D04737"
        },
        "critical": {
            "fg": "#D04737",
            "bg": "#a19894"
        },
        "default-separators": false,
        "separator-block-width": 0
    },
    "cycle": [
        { "fg": "#edffff", "bg": "#6C1B6A80" },
        { "fg": "#edffff", "bg": "#52167806" },
        { "fg": "#edffff", "bg": "#7B71CC80" },
        { "fg": "#edffff", "bg": "#a3384a80" },
        { "fg": "#edffff", "bg": "#0DB8F780" },
        { "fg": "#edffff", "bg": "#dde7f480" },
        { "fg": "#edffff", "bg": "#edffff80" }
  ],
  "dnf": {
        "good": {
            "fg": "#002b36",
            "bg": "#858000"
        }
    },
    "apt": {
        "good": {
            "fg": "#002b36",
            "bg": "#858000"
        }
    },
    "battery": {
        "charged": {
            "fg": "#1d2021",
            "bg": "#b8bb26"
        },
        "AC": {
            "fg": "#1d2021",
            "bg": "#b8bb26"
        }
    },
    "bluetooth": {
        "ON": {
            "fg": "#1d2021",
            "bg": "#b8bb26"
        }
    },
    "git": {
        "modified": { "bg": "#458588" },
        "deleted": { "bg": "#9d0006" },
        "new": { "bg": "#b16286" }
    },
    "pomodoro": {
        "paused": {
            "fg": "#1d2021",
            "bg": "#d78021"
        },
        "work": {
            "fg": "#1d2021",
            "bg": "#b8bb26"
        },
        "break": {
            "fg": "#002b36",
            "bg": "#858000"
        }
    }
}
