{
    "icons": [ "awesome-fonts" ],
    "defaults": {
        "separator-block-width": 0,
        "warning": {
            "fg": "#e2a478",
            "bg": "#c6c8d1"
        },
        "critical": {
            "fg": "#e27878",
            "bg": "#c6c8d1"
        }
    },
    "cycle": [
        { "fg": "#161821", "bg": "#fa8128" },
        { "fg": "#161821", "bg": "#fcae1e" },
        { "fg": "#FFB45B", "bg": "#be5504" },
        { "fg": "#fa8128", "bg": "#80400b" },
        { "fg": "#161821", "bg": "#ec9706" },
        { "fg": "#fa8128", "bg": "#8a3324" }
    ],
    "dnf": {
        "good": {
            "fg": "#b4be82",
            "bg": "#161821"
        }
    },
    "apt": {
        "good": {
            "fg": "#b4be82",
            "bg": "#161821"
        }
    },
    "pacman": {
        "good": {
            "fg": "#b4be82",
            "bg": "#161821"
        }
    },
    "battery": {
        "charged": {
            "fg": "#b4be82",
            "bg": "#161821"
        },
        "charging": {
            "fg": "#89b8c2",
            "bg": "#161821"
        }
    },
    "pomodoro": {
        "paused": {
            "fg": "#e2a478",
            "bg": "#c6c8d1"
        },
        "work": {
            "fg": "#89b8c2",
            "bg": "#161821"
        },
        "break": {
            "fg": "#b4be82",
            "bg": "#161821"
        }
    }

}
