{
    "icons": [ "awesome-fonts" ],
    "defaults": {
        "separator-block-width": 0,
        "warning": {
            "fg": "#0e0e0e",
            "bg": "#c6c8d1"
        },
        "critical": {
            "fg": "#e27878",
            "bg": "#c6c8d1"
        }
    },
    "cycle": [
      { "fg": "#ece3a3", "bg": "#472c2a" },
      { "fg": "#ece3a3", "bg": "#462c29" },
      { "fg": "#ece3a3", "bg": "#462c29" },
      { "fg": "#ece3a3", "bg": "#452c28" },
      { "fg": "#ece3a3", "bg": "#452d27" },
      { "fg": "#ece3a3", "bg": "#442d27" },
      { "fg": "#ece3a3", "bg": "#432d26" },
      { "fg": "#ece3a3", "bg": "#432d26" },
      { "fg": "#ece3a3", "bg": "#422d25" },
      { "fg": "#ece3a3", "bg": "#412d25" },
      { "fg": "#ece3a3", "bg": "#412d24" },
      { "fg": "#ece3a3", "bg": "#402e24" },
      { "fg": "#ece3a3", "bg": "#3f2e24" },
      { "fg": "#ece3a3", "bg": "#3e2e23" },
      { "fg": "#ece3a3", "bg": "#3d2e23" },
      { "fg": "#ece3a3", "bg": "#3d2e23" },
      { "fg": "#ece3a3", "bg": "#3c2e23" },
      { "fg": "#ece3a3", "bg": "#3b2e23" },
      { "fg": "#ece3a3", "bg": "#3a2e22" },
      { "fg": "#ece3a3", "bg": "#3a2f22" },
      { "fg": "#ece3a3", "bg": "#392f22" },
      { "fg": "#ece3a3", "bg": "#382f22" },
      { "fg": "#ece3a3", "bg": "#372f22" },
      { "fg": "#ece3a3", "bg": "#362f22" },
      { "fg": "#ece3a3", "bg": "#362f22" },
      { "fg": "#ece3a3", "bg": "#352f23" },
      { "fg": "#ece3a3", "bg": "#342f23" },
      { "fg": "#ece3a3", "bg": "#342f23" },
      { "fg": "#ece3a3", "bg": "#332f23" },
      { "fg": "#ece3a3", "bg": "#322f23" },
      { "fg": "#ece3a3", "bg": "#312f23" },
      { "fg": "#ece3a3", "bg": "#312f24" },
      { "fg": "#ece3a3", "bg": "#302f24" },
      { "fg": "#ece3a3", "bg": "#2f2f24" },
      { "fg": "#ece3a3", "bg": "#2f2f25" },
      { "fg": "#ece3a3", "bg": "#2e2f25" },
      { "fg": "#ece3a3", "bg": "#2e2f25" },
      { "fg": "#ece3a3", "bg": "#2d2f25" },
      { "fg": "#ece3a3", "bg": "#2d2f26" },
      { "fg": "#ece3a3", "bg": "#2c2f26" }
    ],
    "dnf": {
        "good": {
            "fg": "#b4be82",
            "bg": "#161821"
        }
    },
    "apt": {
        "good": {
            "fg": "#b4be82",
            "bg": "#161821"
        }
    },
    "pacman": {
        "good": {
            "fg": "#888888",
            "bg": "#0e0e0e"
        }
    },
    "battery": {
        "charged": {
            "fg": "#b4be82",
            "bg": "#161821"
        },
        "charging": {
            "fg": "#89b8c2",
            "bg": "#161821"
        }
    },
    "pomodoro": {
        "paused": {
            "fg": "#e2a478",
            "bg": "#c6c8d1"
        },
        "work": {
            "fg": "#89b8c2",
            "bg": "#161821"
        },
        "break": {
            "fg": "#b4be82",
            "bg": "#161821"
        }
    }

}
