{
    "icons": [ "paxy97", "awesome-fonts" ],
    "defaults": {
        "warning": {
            "fg": "#ECD7AC",
            "bg": "#1f262c"
        },
        "critical": {
            "fg": "#1f262c",
            "bg": "#ECD7AC"
        },
        "default-separators": false,
        "separator-block-width":0
    },
    "cycle": [
        { "fg": "#4C1300", "bg": "#ffe05c" },
        { "fg": "#4C1300", "bg": "#f5cb54" },
        { "fg": "#4C1300", "bg": "#eab74d" },
        { "fg": "#4C1300", "bg": "#dda447" },
        { "fg": "#4C1300", "bg": "#d09142" },
        { "fg": "#4C1300", "bg": "#c17f3d" },
        { "fg": "#4C1300", "bg": "#b16e39" },
        { "fg": "#4C1300", "bg": "#a05e34" },
        { "fg": "#ffe05c", "bg": "#8f4e2f" },
        { "fg": "#ffe05c", "bg": "#7d402a" },
        { "fg": "#ffe05c", "bg": "#6b3224" },
        { "fg": "#ffe05c", "bg": "#6b3224" },
        { "fg": "#FFC642", "bg": "#592000" },
        { "fg": "#FFC642", "bg": "#4C1300" },
        { "fg": "#FFC642", "bg": "#59251e" },
        { "fg": "#FFC642", "bg": "#59251e" },
        { "fg": "#FFC642", "bg": "#461917" },
        { "fg": "#FFC642", "bg": "#461917" },
        { "fg": "#FFC642", "bg": "#350e0f" },
        { "fg": "#FFC642", "bg": "#350e0f" },
        { "fg": "#FFC642", "bg": "#260000" },
        { "fg": "#FFC642", "bg": "#260000" },
        { "fg": "#FFC642", "bg": "#350e0f" },
        { "fg": "#FFC642", "bg": "#350e0f" },
        { "fg": "#FFC642", "bg": "#461917" },
        { "fg": "#FFC642", "bg": "#461917" },
        { "fg": "#FFC642", "bg": "#59251e" },
        { "fg": "#FFC642", "bg": "#59251e" },
        { "fg": "#FFC642", "bg": "#4C1300" },
        { "fg": "#FFC642", "bg": "#592000" },
        { "fg": "#FFC642", "bg": "#6b3224" },
        { "fg": "#ffe05c", "bg": "#7d402a" },
        { "fg": "#ffe05c", "bg": "#8f4e2f" },
        { "fg": "#ffe05c", "bg": "#a05e34" },
        { "fg": "#4C1300", "bg": "#b16e39" },
        { "fg": "#4C1300", "bg": "#c17f3d" },
        { "fg": "#4C1300", "bg": "#d09142" },
        { "fg": "#4C1300", "bg": "#dda447" },
        { "fg": "#4C1300", "bg": "#eab74d" },
        { "fg": "#4C1300", "bg": "#f5cb54" },
        { "fg": "#4C1300", "bg": "#ffe05c" }
      ],
  "dnf": {
        "good": {
            "fg": "#002b36",
            "bg": "#859900"
        }
    },
    "apt": {
        "good": {
            "fg": "#002b36",
            "bg": "#859900"
        }
    },
    "battery": {
        "charged": {
            "fg": "#1d2021",
            "bg": "#b8bb26"
        },
        "AC": {
            "fg": "#1d2021",
            "bg": "#b8bb26"
        }
    },
    "bluetooth": {
        "ON": {
            "fg": "#1d2021",
            "bg": "#b8bb26"
        }
    },
    "git": {
        "modified": { "bg": "#458588" },
        "deleted": { "bg": "#9d0006" },
        "new": { "bg": "#b16286" }
    },
    "pomodoro": {
        "paused": {
            "fg": "#1d2021",
            "bg": "#d79921"
        },
        "work": {
            "fg": "#1d2021",
            "bg": "#b8bb26"
        },
        "break": {
            "fg": "#002b36",
            "bg": "#859900"
        }
    }
}
