{
    "icons": [ "paxy97", "awesome-fonts" ],
    "defaults": {
        "warning": {
            "fg": "#ECD7AC",
            "bg": "#1f262c"
        },
        "critical": {
            "fg": "#1f262c",
            "bg": "#ECD7AC"
        },
        "default-separators": false,
        "separator-block-width":0
    },
    "cycle": [
        { "fg": "#f2eee6", "bg": "#A79363" },
        { "fg": "#f2eee6", "bg": "#a88859" },
        { "fg": "#f2eee6", "bg": "#a87d50" },
        { "fg": "#f2eee6", "bg": "#a97242" },
        { "fg": "#f2eee6", "bg": "#a96646" },
        { "fg": "#f2eee6", "bg": "#a85a44" },
        { "fg": "#f2eee6", "bg": "#a64d44" },
        { "fg": "#f2eee6", "bg": "#a34146" },
        { "fg": "#f2eee6", "bg": "#9f344a" },
        { "fg": "#f2eee6", "bg": "#98264f" },
        { "fg": "#f2eee6", "bg": "#901955" },
        { "fg": "#f2eee6", "bg": "#850d5c" },
        { "fg": "#f2eee6", "bg": "#770563" },
        { "fg": "#f2eee6", "bg": "#66066a" },
        { "fg": "#f2eee6", "bg": "#66066a" },
        { "fg": "#f2eee6", "bg": "#500d71" },
        { "fg": "#f2eee6", "bg": "#500d71" },
        { "fg": "#f2eee6", "bg": "#66066a" },
        { "fg": "#f2eee6", "bg": "#66066a" },
        { "fg": "#f2eee6", "bg": "#770563" },
        { "fg": "#f2eee6", "bg": "#850d5c" },
        { "fg": "#f2eee6", "bg": "#901955" },
        { "fg": "#f2eee6", "bg": "#98264f" },
        { "fg": "#f2eee6", "bg": "#9f344a" },
        { "fg": "#f2eee6", "bg": "#a34146" },
        { "fg": "#f2eee6", "bg": "#a64d44" },
        { "fg": "#f2eee6", "bg": "#a85a44" },
        { "fg": "#f2eee6", "bg": "#a96646" },
        { "fg": "#f2eee6", "bg": "#a97242" },
        { "fg": "#f2eee6", "bg": "#a87d50" },
        { "fg": "#f2eee6", "bg": "#a88859" },
        { "fg": "#f2eee6", "bg": "#A79363" }
      ],
  "dnf": {
        "good": {
            "fg": "#002b36",
            "bg": "#859900"
        }
    },
    "apt": {
        "good": {
            "fg": "#002b36",
            "bg": "#859900"
        }
    },
    "battery": {
        "charged": {
            "fg": "#1d2021",
            "bg": "#b8bb26"
        },
        "AC": {
            "fg": "#1d2021",
            "bg": "#b8bb26"
        }
    },
    "bluetooth": {
        "ON": {
            "fg": "#1d2021",
            "bg": "#b8bb26"
        }
    },
    "git": {
        "modified": { "bg": "#458588" },
        "deleted": { "bg": "#9d0006" },
        "new": { "bg": "#b16286" }
    },
    "pomodoro": {
        "paused": {
            "fg": "#1d2021",
            "bg": "#d79921"
        },
        "work": {
            "fg": "#1d2021",
            "bg": "#b8bb26"
        },
        "break": {
            "fg": "#002b36",
            "bg": "#859900"
        }
    }
}
